{
  "DrawableInfo": {
    "global": [
      {
        "Type": "osu.Game.Skinning.LegacyComboCounter, osu.Game, Version=2023.811.0.0, Culture=neutral, PublicKeyToken=null",
        "Position": {
          "x": 0.0,
          "y": -21.670288
        },
        "Rotation": 0.0,
        "Scale": {
          "x": 1.28,
          "y": 1.28
        },
        "Anchor": 12,
        "Origin": 12,
        "UsesFixedAnchor": false,
        "Settings": {},
        "Children": []
      },
      {
        "Type": "osu.Game.Skinning.LegacyScoreCounter, osu.Game, Version=2023.811.0.0, Culture=neutral, PublicKeyToken=null",
        "Position": {
          "x": 0.0,
          "y": 0.0
        },
        "Rotation": 0.0,
        "Scale": {
          "x": 0.96,
          "y": 0.96
        },
        "Anchor": 33,
        "Origin": 33,
        "UsesFixedAnchor": false,
        "Settings": {},
        "Children": []
      },
      {
        "Type": "osu.Game.Skinning.LegacyAccuracyCounter, osu.Game, Version=2023.811.0.0, Culture=neutral, PublicKeyToken=null",
        "Position": {
          "x": 0.0,
          "y": 48.955414
        },
        "Rotation": 0.0,
        "Scale": {
          "x": 0.6,
          "y": 0.6
        },
        "Anchor": 33,
        "Origin": 33,
        "UsesFixedAnchor": false,
        "Settings": {
          "accuracy_display": 0
        },
        "Children": []
      },
      {
        "Type": "osu.Game.Skinning.LegacyHealthDisplay, osu.Game, Version=2023.811.0.0, Culture=neutral, PublicKeyToken=null",
        "Position": {
          "x": 0.0,
          "y": 0.0
        },
        "Rotation": 0.0,
        "Scale": {
          "x": 1.0,
          "y": 1.0
        },
        "Anchor": 9,
        "Origin": 9,
        "UsesFixedAnchor": false,
        "Settings": {},
        "Children": []
      },
      {
        "Type": "osu.Game.Skinning.LegacySongProgress, osu.Game, Version=2023.811.0.0, Culture=neutral, PublicKeyToken=null",
        "Position": {
          "x": -133.19653,
          "y": 70.59485
        },
        "Rotation": 0.0,
        "Scale": {
          "x": 1.0,
          "y": 1.0
        },
        "Anchor": 33,
        "Origin": 34,
        "UsesFixedAnchor": false,
        "Settings": {},
        "Children": []
      },
      {
        "Type": "osu.Game.Screens.Play.HUD.HitErrorMeters.BarHitErrorMeter, osu.Game, Version=2023.811.0.0, Culture=neutral, PublicKeyToken=null",
        "Position": {
          "x": 0.0,
          "y": 0.0
        },
        "Rotation": 0.0,
        "Scale": {
          "x": 1.0,
          "y": 1.0
        },
        "Anchor": 34,
        "Origin": 34,
        "UsesFixedAnchor": true,
        "Settings": {
          "judgement_line_thickness": 4.0,
          "colour_bar_visibility": true,
          "show_moving_average": true,
          "centre_marker_style": 1,
          "label_style": 1
        },
        "Children": []
      },
      {
        "Type": "osu.Game.Screens.Play.ArgonKeyCounterDisplay, osu.Game, Version=2023.811.0.0, Culture=neutral, PublicKeyToken=null",
        "Position": {
          "x": 0.0,
          "y": -43.340195
        },
        "Rotation": 0.0,
        "Scale": {
          "x": 1.0,
          "y": 1.0
        },
        "Anchor": 36,
        "Origin": 36,
        "UsesFixedAnchor": true,
        "Settings": {},
        "Children": []
      },
      {
        "Type": "osu.Game.Screens.Play.HUD.HitErrorMeters.ColourHitErrorMeter, osu.Game, Version=2023.811.0.0, Culture=neutral, PublicKeyToken=null",
        "Position": {
          "x": 0.0,
          "y": 0.0
        },
        "Rotation": 0.0,
        "Scale": {
          "x": 1.0,
          "y": 1.0
        },
        "Anchor": 10,
        "Origin": 10,
        "UsesFixedAnchor": true,
        "Settings": {
          "judgement_count": 20,
          "judgement_spacing": 2.0,
          "judgement_shape": 0
        },
        "Children": []
      },
      {
        "Type": "osu.Game.Screens.Play.HUD.ArgonSongProgress, osu.Game, Version=2023.811.0.0, Culture=neutral, PublicKeyToken=null",
        "Position": {
          "x": 0.0,
          "y": 0.0
        },
        "Rotation": 0.0,
        "Scale": {
          "x": 1.0,
          "y": 1.0
        },
        "Anchor": 20,
        "Origin": 20,
        "UsesFixedAnchor": true,
        "Settings": {
          "show_graph": true
        },
        "Children": []
      },
      {
        "Type": "osu.Game.Screens.Play.HUD.PerformancePointsCounter, osu.Game, Version=2023.811.0.0, Culture=neutral, PublicKeyToken=null",
        "Position": {
          "x": -7.223572,
          "y": 95.350464
        },
        "Rotation": 0.0,
        "Scale": {
          "x": 1.0,
          "y": 1.0
        },
        "Anchor": 33,
        "Origin": 33,
        "UsesFixedAnchor": true,
        "Settings": {},
        "Children": []
      },
      {
        "Type": "osu.Game.Screens.Play.HUD.JudgementCounter.JudgementCounterDisplay, osu.Game, Version=2023.811.0.0, Culture=neutral, PublicKeyToken=null",
        "Position": {
          "x": -234.04175,
          "y": 41.896454
        },
        "Rotation": 0.0,
        "Scale": {
          "x": 1.0,
          "y": 1.0
        },
        "Anchor": 33,
        "Origin": 34,
        "UsesFixedAnchor": true,
        "Settings": {
          "mode": 0,
          "flow_direction": 1,
          "show_judgement_names": false,
          "show_max_judgement": false
        },
        "Children": []
      }
    ],
    "osu": []
  }
}