<?xml version="1.0" encoding="UTF-8" standalone="no"?>
<!-- Created with Inkscape (http://www.inkscape.org/) -->

<svg
   version="1.1"
   id="svg2"
   width="300"
   height="56"
   viewBox="0 0 300 56"
   sodipodi:docname="spinner-rpm.svg"
   xml:space="preserve"
   inkscape:version="1.2.2 (b0a8486541, 2022-12-01)"
   inkscape:export-filename="spinner-rpm.png"
   inkscape:export-xdpi="96"
   inkscape:export-ydpi="96"
   xmlns:inkscape="http://www.inkscape.org/namespaces/inkscape"
   xmlns:sodipodi="http://sodipodi.sourceforge.net/DTD/sodipodi-0.dtd"
   xmlns="http://www.w3.org/2000/svg"
   xmlns:svg="http://www.w3.org/2000/svg"><defs
     id="defs6"><rect
       x="0"
       y="0"
       width="125.52542"
       height="73.084746"
       id="rect359" /><filter
       style="color-interpolation-filters:sRGB;"
       inkscape:label="Drop Shadow"
       id="filter977"
       x="-0.057040684"
       y="-0.1436837"
       width="1.1140814"
       height="1.2873674"><feFlood
         flood-opacity="0.8"
         flood-color="rgb(0,0,0)"
         result="flood"
         id="feFlood967" /><feComposite
         in="flood"
         in2="SourceGraphic"
         operator="in"
         result="composite1"
         id="feComposite969" /><feGaussianBlur
         in="composite1"
         stdDeviation="2"
         result="blur"
         id="feGaussianBlur971" /><feOffset
         dx="0"
         dy="0"
         result="offset"
         id="feOffset973" /><feComposite
         in="SourceGraphic"
         in2="offset"
         operator="over"
         result="composite2"
         id="feComposite975" /></filter><filter
       style="color-interpolation-filters:sRGB;"
       inkscape:label="Drop Shadow"
       id="filter997"
       x="-1.2"
       y="-0.13006845"
       width="3.4"
       height="1.2601369"><feFlood
         flood-opacity="0.8"
         flood-color="rgb(255,255,255)"
         result="flood"
         id="feFlood987" /><feComposite
         in="flood"
         in2="SourceGraphic"
         operator="in"
         result="composite1"
         id="feComposite989" /><feGaussianBlur
         in="composite1"
         stdDeviation="3"
         result="blur"
         id="feGaussianBlur991" /><feOffset
         dx="0"
         dy="0"
         result="offset"
         id="feOffset993" /><feComposite
         in="SourceGraphic"
         in2="offset"
         operator="over"
         result="composite2"
         id="feComposite995" /></filter></defs><sodipodi:namedview
     id="namedview4"
     pagecolor="#505050"
     bordercolor="#eeeeee"
     borderopacity="1"
     inkscape:showpageshadow="0"
     inkscape:pageopacity="0"
     inkscape:pagecheckerboard="0"
     inkscape:deskcolor="#505050"
     showgrid="false"
     inkscape:zoom="2.97995"
     inkscape:cx="100.67283"
     inkscape:cy="49.161899"
     inkscape:window-width="2560"
     inkscape:window-height="1567"
     inkscape:window-x="0"
     inkscape:window-y="0"
     inkscape:window-maximized="1"
     inkscape:current-layer="g8" /><g
     inkscape:groupmode="layer"
     inkscape:label="Image"
     id="g8"><text
       xml:space="preserve"
       id="text357"
       style="font-size:53.3333px;line-height:19.8692px;font-family:'Torus Pro';-inkscape-font-specification:'Torus Pro';text-orientation:upright;white-space:pre;shape-inside:url(#rect359);display:inline;fill:#ffffff;fill-opacity:1;fill-rule:evenodd;stroke:#000000;stroke-width:0.5;stroke-dasharray:none;stroke-opacity:1;filter:url(#filter977)"
       transform="translate(4.0300021,18.292901)"><tspan
         x="0"
         y="25.797083"
         id="tspan1040">rpm</tspan></text></g></svg>
