<?xml version="1.0" encoding="UTF-8" standalone="no"?>
<!-- Created with Inkscape (http://www.inkscape.org/) -->

<svg
   version="1.1"
   id="svg2"
   width="255"
   height="255"
   viewBox="0 0 255 255"
   sodipodi:docname="sliderb0.svg"
   xml:space="preserve"
   inkscape:version="1.2.2 (b0a8486541, 2022-12-01)"
   xmlns:inkscape="http://www.inkscape.org/namespaces/inkscape"
   xmlns:sodipodi="http://sodipodi.sourceforge.net/DTD/sodipodi-0.dtd"
   xmlns:xlink="http://www.w3.org/1999/xlink"
   xmlns="http://www.w3.org/2000/svg"
   xmlns:svg="http://www.w3.org/2000/svg"><defs
     id="defs6"><filter
       style="color-interpolation-filters:sRGB"
       inkscape:label="Drop Shadow"
       id="filter1549"
       x="-0.099107146"
       y="-0.099107146"
       width="1.1982143"
       height="1.1982143"><feFlood
         flood-opacity="0.729412"
         flood-color="rgb(0,0,0)"
         result="flood"
         id="feFlood1539" /><feComposite
         in="flood"
         in2="SourceGraphic"
         operator="in"
         result="composite1"
         id="feComposite1541" /><feGaussianBlur
         in="composite1"
         stdDeviation="4"
         result="blur"
         id="feGaussianBlur1543" /><feOffset
         dx="0"
         dy="0"
         result="offset"
         id="feOffset1545" /><feComposite
         in="SourceGraphic"
         in2="offset"
         operator="over"
         result="composite2"
         id="feComposite1547" /></filter><filter
       style="color-interpolation-filters:sRGB"
       inkscape:label="Drop Shadow"
       id="filter1561"
       x="-0.108"
       y="-0.108"
       width="1.216"
       height="1.216"><feFlood
         flood-opacity="0.729412"
         flood-color="rgb(0,0,0)"
         result="flood"
         id="feFlood1551" /><feComposite
         in="flood"
         in2="SourceGraphic"
         operator="in"
         result="composite1"
         id="feComposite1553" /><feGaussianBlur
         in="composite1"
         stdDeviation="4"
         result="blur"
         id="feGaussianBlur1555" /><feOffset
         dx="0"
         dy="0"
         result="offset"
         id="feOffset1557" /><feComposite
         in="SourceGraphic"
         in2="offset"
         operator="over"
         result="composite2"
         id="feComposite1559" /></filter><filter
       style="color-interpolation-filters:sRGB"
       inkscape:label="Drop Shadow"
       id="filter1625"
       x="-0.11527778"
       y="-0.11527778"
       width="1.2305557"
       height="1.2305557"><feFlood
         flood-opacity="0.729412"
         flood-color="rgb(0,0,0)"
         result="flood"
         id="feFlood1615" /><feComposite
         in="flood"
         in2="SourceGraphic"
         operator="in"
         result="composite1"
         id="feComposite1617" /><feGaussianBlur
         in="composite1"
         stdDeviation="4"
         result="blur"
         id="feGaussianBlur1619" /><feOffset
         dx="0"
         dy="0"
         result="offset"
         id="feOffset1621" /><feComposite
         in="SourceGraphic"
         in2="offset"
         operator="over"
         result="composite2"
         id="feComposite1623" /></filter><filter
       style="color-interpolation-filters:sRGB"
       inkscape:label="Drop Shadow"
       id="filter1637"
       x="-0.108"
       y="-0.108"
       width="1.216"
       height="1.216"><feFlood
         flood-opacity="0.729412"
         flood-color="rgb(0,0,0)"
         result="flood"
         id="feFlood1627" /><feComposite
         in="flood"
         in2="SourceGraphic"
         operator="in"
         result="composite1"
         id="feComposite1629" /><feGaussianBlur
         in="composite1"
         stdDeviation="4"
         result="blur"
         id="feGaussianBlur1631" /><feOffset
         dx="0"
         dy="0"
         result="offset"
         id="feOffset1633" /><feComposite
         in="SourceGraphic"
         in2="offset"
         operator="over"
         result="composite2"
         id="feComposite1635" /></filter><filter
       style="color-interpolation-filters:sRGB"
       inkscape:label="Drop Shadow"
       id="filter2155"
       x="-0.10368421"
       y="-0.10368421"
       width="1.2073684"
       height="1.2073684"><feFlood
         flood-opacity="0.729412"
         flood-color="rgb(0,0,0)"
         result="flood"
         id="feFlood2145" /><feComposite
         in="flood"
         in2="SourceGraphic"
         operator="in"
         result="composite1"
         id="feComposite2147" /><feGaussianBlur
         in="composite1"
         stdDeviation="4.3"
         result="blur"
         id="feGaussianBlur2149" /><feOffset
         dx="0"
         dy="0"
         result="offset"
         id="feOffset2151" /><feComposite
         in="SourceGraphic"
         in2="offset"
         operator="over"
         result="composite2"
         id="feComposite2153" /></filter><filter
       style="color-interpolation-filters:sRGB"
       inkscape:label="Drop Shadow"
       id="filter890"
       x="-0.097368421"
       y="-0.097368421"
       width="1.1947368"
       height="1.1947368"><feFlood
         flood-opacity="0.729412"
         flood-color="rgb(255,255,255)"
         result="flood"
         id="feFlood880" /><feComposite
         in="flood"
         in2="SourceGraphic"
         operator="in"
         result="composite1"
         id="feComposite882" /><feGaussianBlur
         in="composite1"
         stdDeviation="4"
         result="blur"
         id="feGaussianBlur884" /><feOffset
         dx="0"
         dy="0"
         result="offset"
         id="feOffset886" /><feComposite
         in="SourceGraphic"
         in2="offset"
         operator="over"
         result="composite2"
         id="feComposite888" /></filter><inkscape:path-effect
       effect="fill_between_many"
       method="originald"
       linkedpaths="#circle998,0,1|#path442,0,1"
       id="path-effect1001"
       is_visible="true"
       lpeversion="0"
       join="true"
       close="true"
       autoreverse="true" /><inkscape:path-effect
       effect="fill_between_many"
       method="originald"
       linkedpaths="#path3546,0,1"
       id="path-effect3669"
       is_visible="true"
       lpeversion="0"
       join="true"
       close="true"
       autoreverse="true" /><inkscape:path-effect
       effect="fill_between_many"
       method="originald"
       linkedpaths="#path3546,0,1"
       id="path-effect3677"
       is_visible="true"
       lpeversion="0"
       join="true"
       close="true"
       autoreverse="true" /><filter
       style="color-interpolation-filters:sRGB"
       inkscape:label="Drop Shadow"
       id="filter1911"
       x="-1.4931629"
       y="-0.74658066"
       width="3.9863151"
       height="2.4931613"><feFlood
         flood-opacity="0.729412"
         flood-color="rgb(255,255,255)"
         result="flood"
         id="feFlood1901" /><feComposite
         in="flood"
         in2="SourceGraphic"
         operator="in"
         result="composite1"
         id="feComposite1903" /><feGaussianBlur
         in="composite1"
         stdDeviation="5"
         result="blur"
         id="feGaussianBlur1905" /><feOffset
         dx="0"
         dy="0"
         result="offset"
         id="feOffset1907" /><feComposite
         in="SourceGraphic"
         in2="offset"
         operator="over"
         result="composite2"
         id="feComposite1909" /></filter><filter
       style="color-interpolation-filters:sRGB"
       inkscape:label="Drop Shadow"
       id="filter1923"
       x="-0.90118963"
       y="-0.18664521"
       width="2.8023791"
       height="1.3732904"><feFlood
         flood-opacity="0.729412"
         flood-color="rgb(255,255,255)"
         result="flood"
         id="feFlood1913" /><feComposite
         in="flood"
         in2="SourceGraphic"
         operator="in"
         result="composite1"
         id="feComposite1915" /><feGaussianBlur
         in="composite1"
         stdDeviation="5"
         result="blur"
         id="feGaussianBlur1917" /><feOffset
         dx="0"
         dy="0"
         result="offset"
         id="feOffset1919" /><feComposite
         in="SourceGraphic"
         in2="offset"
         operator="over"
         result="composite2"
         id="feComposite1921" /></filter><filter
       style="color-interpolation-filters:sRGB"
       inkscape:label="Drop Shadow"
       id="filter1935"
       x="-0.76608318"
       y="-0.15865861"
       width="2.5321662"
       height="1.3173172"><feFlood
         flood-opacity="0.729412"
         flood-color="rgb(255,255,255)"
         result="flood"
         id="feFlood1925" /><feComposite
         in="flood"
         in2="SourceGraphic"
         operator="in"
         result="composite1"
         id="feComposite1927" /><feGaussianBlur
         in="composite1"
         stdDeviation="5"
         result="blur"
         id="feGaussianBlur1929" /><feOffset
         dx="0"
         dy="0"
         result="offset"
         id="feOffset1931" /><feComposite
         in="SourceGraphic"
         in2="offset"
         operator="over"
         result="composite2"
         id="feComposite1933" /></filter><linearGradient
       inkscape:collect="always"
       id="linearGradient879"><stop
         style="stop-color:#ffffff;stop-opacity:0.05;"
         offset="0"
         id="stop875" /><stop
         style="stop-color:#ffffff;stop-opacity:0.2;"
         offset="0.77560979"
         id="stop885" /><stop
         style="stop-color:#ffffff;stop-opacity:0.40000001;"
         offset="1"
         id="stop877" /></linearGradient><linearGradient
       id="linearGradient853"
       inkscape:swatch="gradient"><stop
         style="stop-color:#ffffff;stop-opacity:0.25;"
         offset="0"
         id="stop849" /><stop
         style="stop-color:#ffffff;stop-opacity:0.40000001;"
         offset="0.6682927"
         id="stop861" /><stop
         style="stop-color:#ffffff;stop-opacity:0.60000002;"
         offset="0.89999998"
         id="stop857" /><stop
         style="stop-color:#ffffff;stop-opacity:0.64999998;"
         offset="1"
         id="stop851" /></linearGradient><filter
       style="color-interpolation-filters:sRGB;"
       inkscape:label="Drop Shadow"
       id="filter1549-7"
       x="-0.099107143"
       y="-0.099107143"
       width="1.1982143"
       height="1.1982143"><feFlood
         flood-opacity="0.729412"
         flood-color="rgb(0,0,0)"
         result="flood"
         id="feFlood1539-5" /><feComposite
         in="flood"
         in2="SourceGraphic"
         operator="in"
         result="composite1"
         id="feComposite1541-3" /><feGaussianBlur
         in="composite1"
         stdDeviation="4"
         result="blur"
         id="feGaussianBlur1543-5" /><feOffset
         dx="0"
         dy="0"
         result="offset"
         id="feOffset1545-6" /><feComposite
         in="SourceGraphic"
         in2="offset"
         operator="over"
         result="composite2"
         id="feComposite1547-2" /></filter><filter
       style="color-interpolation-filters:sRGB;"
       inkscape:label="Drop Shadow"
       id="filter1561-9"
       x="-0.108"
       y="-0.108"
       width="1.216"
       height="1.216"><feFlood
         flood-opacity="0.729412"
         flood-color="rgb(0,0,0)"
         result="flood"
         id="feFlood1551-1" /><feComposite
         in="flood"
         in2="SourceGraphic"
         operator="in"
         result="composite1"
         id="feComposite1553-2" /><feGaussianBlur
         in="composite1"
         stdDeviation="4"
         result="blur"
         id="feGaussianBlur1555-7" /><feOffset
         dx="0"
         dy="0"
         result="offset"
         id="feOffset1557-0" /><feComposite
         in="SourceGraphic"
         in2="offset"
         operator="over"
         result="composite2"
         id="feComposite1559-9" /></filter><filter
       style="color-interpolation-filters:sRGB;"
       inkscape:label="Drop Shadow"
       id="filter1625-3"
       x="-0.11527778"
       y="-0.11527778"
       width="1.2305556"
       height="1.2305556"><feFlood
         flood-opacity="0.729412"
         flood-color="rgb(0,0,0)"
         result="flood"
         id="feFlood1615-6" /><feComposite
         in="flood"
         in2="SourceGraphic"
         operator="in"
         result="composite1"
         id="feComposite1617-0" /><feGaussianBlur
         in="composite1"
         stdDeviation="4"
         result="blur"
         id="feGaussianBlur1619-6" /><feOffset
         dx="0"
         dy="0"
         result="offset"
         id="feOffset1621-2" /><feComposite
         in="SourceGraphic"
         in2="offset"
         operator="over"
         result="composite2"
         id="feComposite1623-6" /></filter><filter
       style="color-interpolation-filters:sRGB;"
       inkscape:label="Drop Shadow"
       id="filter1637-1"
       x="-0.108"
       y="-0.108"
       width="1.216"
       height="1.216"><feFlood
         flood-opacity="0.729412"
         flood-color="rgb(0,0,0)"
         result="flood"
         id="feFlood1627-8" /><feComposite
         in="flood"
         in2="SourceGraphic"
         operator="in"
         result="composite1"
         id="feComposite1629-7" /><feGaussianBlur
         in="composite1"
         stdDeviation="4"
         result="blur"
         id="feGaussianBlur1631-9" /><feOffset
         dx="0"
         dy="0"
         result="offset"
         id="feOffset1633-2" /><feComposite
         in="SourceGraphic"
         in2="offset"
         operator="over"
         result="composite2"
         id="feComposite1635-0" /></filter><filter
       style="color-interpolation-filters:sRGB;"
       inkscape:label="Drop Shadow"
       id="filter2155-2"
       x="-0.10368421"
       y="-0.10368421"
       width="1.2073684"
       height="1.2073684"><feFlood
         flood-opacity="0.729412"
         flood-color="rgb(0,0,0)"
         result="flood"
         id="feFlood2145-3" /><feComposite
         in="flood"
         in2="SourceGraphic"
         operator="in"
         result="composite1"
         id="feComposite2147-7" /><feGaussianBlur
         in="composite1"
         stdDeviation="4.3"
         result="blur"
         id="feGaussianBlur2149-5" /><feOffset
         dx="0"
         dy="0"
         result="offset"
         id="feOffset2151-9" /><feComposite
         in="SourceGraphic"
         in2="offset"
         operator="over"
         result="composite2"
         id="feComposite2153-2" /></filter><filter
       style="color-interpolation-filters:sRGB;"
       inkscape:label="Drop Shadow"
       id="filter890-2"
       x="-0.097368421"
       y="-0.097368421"
       width="1.1947368"
       height="1.1947368"><feFlood
         flood-opacity="0.729412"
         flood-color="rgb(255,255,255)"
         result="flood"
         id="feFlood880-8" /><feComposite
         in="flood"
         in2="SourceGraphic"
         operator="in"
         result="composite1"
         id="feComposite882-9" /><feGaussianBlur
         in="composite1"
         stdDeviation="4"
         result="blur"
         id="feGaussianBlur884-7" /><feOffset
         dx="0"
         dy="0"
         result="offset"
         id="feOffset886-3" /><feComposite
         in="SourceGraphic"
         in2="offset"
         operator="over"
         result="composite2"
         id="feComposite888-6" /></filter><radialGradient
       inkscape:collect="always"
       xlink:href="#linearGradient879"
       id="radialGradient881"
       cx="64.5"
       cy="64.5"
       fx="64.5"
       fy="64.5"
       r="56"
       gradientUnits="userSpaceOnUse" /></defs><sodipodi:namedview
     id="namedview4"
     pagecolor="#505050"
     bordercolor="#eeeeee"
     borderopacity="1"
     inkscape:showpageshadow="0"
     inkscape:pageopacity="0"
     inkscape:pagecheckerboard="0"
     inkscape:deskcolor="#505050"
     showgrid="false"
     inkscape:zoom="2.8284271"
     inkscape:cx="149.90664"
     inkscape:cy="127.27922"
     inkscape:window-width="2560"
     inkscape:window-height="1566"
     inkscape:window-x="0"
     inkscape:window-y="34"
     inkscape:window-maximized="1"
     inkscape:current-layer="g8" /><g
     inkscape:groupmode="layer"
     inkscape:label="Image"
     id="g8"
     transform="translate(-45.166672,-45.166672)"><circle
       style="fill:#ffffff;fill-opacity:0.2;stroke:none;stroke-width:4.4;stroke-linecap:round;stroke-linejoin:bevel;stroke-opacity:0.8"
       id="path913"
       cx="172.66667"
       cy="172.66667"
       r="127.5" /><g
       id="g2143"
       inkscape:label="g2143"
       style="filter:url(#filter890-2)"
       transform="translate(108.16667,108.16667)"><circle
         style="display:inline;fill:url(#radialGradient881);fill-opacity:1;fill-rule:nonzero;stroke:none;stroke-width:5.7;stroke-linecap:round;stroke-linejoin:bevel;stroke-dasharray:none;stroke-opacity:0.6"
         id="circle1861"
         cx="64.5"
         cy="64.5"
         inkscape:label="circle"
         r="56" /><circle
         style="display:inline;fill:none;fill-opacity:0.75;stroke:#020202;stroke-width:3;stroke-linecap:round;stroke-linejoin:bevel;stroke-dasharray:none;stroke-opacity:1"
         id="circle1863"
         cx="64.5"
         cy="64.5"
         inkscape:label="circleBlack"
         r="57" /></g></g></svg>
